^C:\USERS\USRQNET5\DOCUMENTS\VISUAL STUDIO 2010\PROJECTS\TESTLOG4NET\TESTLOG4NET\FRMTEST.RESX|C:\USERS\USRQNET5\DOCUMENTS\VISUAL STUDIO 2010\PROJECTS\TESTLOG4NET\TESTLOG4NET\PROPERTIES\RESOURCES.RESX
C:\USERS\USRQNET5\DOCUMENTS\VISUAL STUDIO 2010\PROJECTS\TESTLOG4NET\TESTLOG4NET\OBJ\X86\DEBUG\TESTPROYECTLOG4NET.FRMTEST.RESOURCES
C:\USERS\USRQNET5\DOCUMENTS\VISUAL STUDIO 2010\PROJECTS\TESTLOG4NET\TESTLOG4NET\OBJ\X86\DEBUG\TESTLOG4NET.PROPERTIES.RESOURCES.RESOURCES
